reports/v2_uvm/sim.log
UVM_INFO /home/azureuser/uvm-core/src/base/uvm_root.svh(476) @ 0: reporter [UVM/RELNOTES] 
  ***********       IMPORTANT RELEASE NOTES         ************

  This implementation of the UVM Library deviates from the 1800.2-2020
  standard.  See the DEVIATIONS.md file contained in the release
  for more details.

----------------------------------------------------------------
Accellera:1800.2:UVM:2020.3.1

All copyright owners for this kit are listed in NOTICE.txt
All Rights Reserved Worldwide
----------------------------------------------------------------

      (Specify +UVM_NO_RELNOTES to turn off this notice)

UVM_WARNING /home/azureuser/uvm-core/src/base/uvm_root.svh(549) @ 0: reporter [NO_DPI_USED] We are thinking of removing support for UVM_NO_DPI.  Please try this test without it and evaluate the impact
UVM_INFO /home/azureuser/uvm-core/src/base/uvm_root.svh(552) @ 0: reporter [NO_DPI_TSTNAME] UVM_NO_DPI defined--getting UVM_TESTNAME directly, without DPI
UVM_INFO @ 0: reporter [RNTST] Running test hft_base_test...
UVM_INFO /home/azureuser/uvm-core/src/base/uvm_traversal.svh(345) @ 0: reporter [UVM/COMP/NAMECHECK] This implementation of the component name checks requires DPI to be enabled
UVM_WARNING /home/azureuser/uvm-core/src/base/uvm_traversal.svh(314) @ 0: reporter [NO_VISIT_CHECK] Because UVM_REGEX_NO_DPI is defined, no uvm component name constraints will be checked
UVM_INFO tb_top.sv(565) @ 0: uvm_test_top [TEST] === HFT Base Test Starting ===
UVM_INFO tb_top.sv(590) @ 375075: uvm_test_top [TEST] Reset deasserted, system running
UVM_INFO tb_top.sv(593) @ 375075: uvm_test_top [TEST] Configuring symbol filter for AAPL
UVM_INFO tb_top.sv(608) @ 525105: uvm_test_top [TEST] Loading weights for all 8 cores
UVM_INFO tb_top.sv(618) @ 4792625: uvm_test_top [TEST] Configuring OUCH template for AAPL (sym_id=0)
UVM_INFO tb_top.sv(637) @ 4992665: uvm_test_top [TEST] Configuring risk parameters
UVM_INFO tb_top.sv(656) @ 5209375: uvm_test_top [TEST] Sending ITCH Add Order (Buy, AAPL)
[DBG] t=5326065 fields_valid #1 msg_type=0x41 stock=4141504c20202020 ob_state=0 ob_ready=1 ob_fv=1
[DBG] t=5329399 OB_READ_REF1 op_msg_type=0x41 order_ref=1001 probe=0
[DBG] t=5336067 watchlist_hit #1
[DBG] t=5336067 feat_ext_fv #1 bbo_bid=0 bbo_ask=0
[DBG] t=5339401 OB_MATCH op_msg=0x41 is_add=1 ref_match=0 ref_empty=1 probe=0
[DBG] t=5352737 OB_UPDATE op_msg=0x41 target_found=1
[DBG] t=5359405 features_valid #1
UVM_INFO tb_top.sv(669) @ 5424000: uvm_test_top [TEST] Sending ITCH Add Order (Sell, AAPL)
[DBG] t=5546109 fields_valid #2 msg_type=0x41 stock=4141504c20202020 ob_state=0 ob_ready=1 ob_fv=1
[DBG] t=5549443 OB_READ_REF1 op_msg_type=0x41 order_ref=1002 probe=0
[DBG] t=5556111 watchlist_hit #2
[DBG] t=5556111 feat_ext_fv #2 bbo_bid=0 bbo_ask=0
[DBG] t=5559445 OB_MATCH op_msg=0x41 is_add=1 ref_match=0 ref_empty=1 probe=0
[DBG] t=5566113 GV=11111111 lv0v=1111 scores=0x4b430364 0x4b430364 0x4b430364 0x4b430364 0x4b430364 0x4b430364 0x4b430364 0x4b430364
[DBG] t=5572781 OB_UPDATE op_msg=0x41 target_found=1
[DBG] t=5576115 best_valid #1 score=0x4b430364
[DBG] t=5579449 features_valid #2
[DBG] t=5596119 risk_blocked #1 reason=01 ref_price=0 band_thresh=0 price_diff=26880000
UVM_INFO tb_top.sv(679) @ 5641600: uvm_test_top [TEST] Sending ITCH Add Order (Buy, MSFT)
[DBG] t=5762819 fields_valid #3 msg_type=0x41 stock=4d53465420202020 ob_state=0 ob_ready=1 ob_fv=1
[DBG] t=5766153 OB_READ_REF1 op_msg_type=0x41 order_ref=2001 probe=0
[DBG] t=5772821 watchlist_hit #3
[DBG] t=5772821 feat_ext_fv #3 bbo_bid=0 bbo_ask=26880000
[DBG] t=5776155 OB_MATCH op_msg=0x41 is_add=1 ref_match=0 ref_empty=1 probe=0
[DBG] t=5786157 GV=11111111 lv0v=1111 scores=0x4b4d0084 0x4b4d0084 0x4b4d0084 0x4b4d0084 0x4b4d0084 0x4b4d0084 0x4b4d0084 0x4b4d0084
[DBG] t=5789491 OB_UPDATE op_msg=0x41 target_found=1
[DBG] t=5796159 features_valid #3
[DBG] t=5796159 best_valid #2 score=0x4b4d0084
[DBG] t=5816163 risk_pass #1
UVM_INFO tb_top.sv(130) @ 5842835: uvm_test_top.scb [SCB] OUCH pkt #1: msg_type=O correct
UVM_INFO tb_top.sv(689) @ 5859200: uvm_test_top [TEST] Sending ITCH Add Order (Sell, MSFT)
[DBG] t=5979529 fields_valid #4 msg_type=0x41 stock=4d53465420202020 ob_state=0 ob_ready=1 ob_fv=1
[DBG] t=5982863 OB_READ_REF1 op_msg_type=0x41 order_ref=2002 probe=0
[DBG] t=5989531 watchlist_hit #4
[DBG] t=5989531 feat_ext_fv #4 bbo_bid=0 bbo_ask=26880000
[DBG] t=5992865 OB_MATCH op_msg=0x41 is_add=1 ref_match=0 ref_empty=1 probe=0
[DBG] t=6002867 GV=11111111 lv0v=1111 scores=0x4c183ffb 0x4c183ffb 0x4c183ffb 0x4c183ffb 0x4c183ffb 0x4c183ffb 0x4c183ffb 0x4c183ffb
[DBG] t=6006201 OB_UPDATE op_msg=0x41 target_found=1
[DBG] t=6012869 features_valid #4
[DBG] t=6012869 best_valid #3 score=0x4c183ffb
[DBG] t=6032873 risk_pass #2
UVM_INFO tb_top.sv(130) @ 6059545: uvm_test_top.scb [SCB] OUCH pkt #2: msg_type=O correct
[DBG] t=6219577 GV=11111111 lv0v=1111 scores=0x4c4bfffe 0x4c4bfffe 0x4c4bfffe 0x4c4bfffe 0x4c4bfffe 0x4c4bfffe 0x4c4bfffe 0x4c4bfffe
[DBG] t=6229579 best_valid #4 score=0x4c4bfffe
[DBG] t=6249583 risk_pass #3
UVM_INFO tb_top.sv(130) @ 6276255: uvm_test_top.scb [SCB] OUCH pkt #3: msg_type=O correct
UVM_INFO tb_top.sv(698) @ 7868800: uvm_test_top [TEST] Sending Execute Order (partial, buy-side)
[DBG] t=7989931 fields_valid #5 msg_type=0x45 stock=0000000000000000 ob_state=0 ob_ready=1 ob_fv=1
[DBG] t=7993265 OB_READ_REF1 op_msg_type=0x45 order_ref=1001 probe=0
[DBG] t=8003267 OB_MATCH op_msg=0x45 is_add=0 ref_match=1 ref_empty=0 probe=0
[DBG] t=8016603 OB_UPDATE op_msg=0x45 target_found=1
UVM_INFO tb_top.sv(706) @ 9878400: uvm_test_top [TEST] Sending Cancel Order (sell-side)
[DBG] t=9993665 fields_valid #6 msg_type=0x58 stock=0000000000000000 ob_state=0 ob_ready=1 ob_fv=1
[DBG] t=9996999 OB_READ_REF1 op_msg_type=0x58 order_ref=1002 probe=0
[DBG] t=10007001 OB_MATCH op_msg=0x58 is_add=0 ref_match=1 ref_empty=0 probe=0
[DBG] t=10020337 OB_UPDATE op_msg=0x58 target_found=1
UVM_INFO tb_top.sv(714) @ 11881600: uvm_test_top [TEST] Sending Delete Order (buy-side)
[DBG] t=11990731 fields_valid #7 msg_type=0x44 stock=0000000000000000 ob_state=0 ob_ready=1 ob_fv=1
[DBG] t=11994065 OB_READ_REF1 op_msg_type=0x44 order_ref=2001 probe=0
[DBG] t=12004067 OB_MATCH op_msg=0x44 is_add=0 ref_match=1 ref_empty=0 probe=0
[DBG] t=12017403 OB_UPDATE op_msg=0x44 target_found=1
UVM_INFO tb_top.sv(724) @ 12598400: uvm_test_top [TEST] Sending Replace Order (MSFT sell)
[DBG] t=12717543 fields_valid #8 msg_type=0x55 stock=0000000000000000 ob_state=0 ob_ready=1 ob_fv=1
[DBG] t=12720877 OB_READ_REF1 op_msg_type=0x55 order_ref=2002 probe=0
[DBG] t=12730879 OB_MATCH op_msg=0x55 is_add=0 ref_match=1 ref_empty=0 probe=0
[DBG] t=12744215 OB_UPDATE op_msg=0x55 target_found=1
UVM_INFO tb_top.sv(732) @ 13328000: uvm_test_top [TEST] Sending Trade message (P)
[DBG] t=13454357 fields_valid #9 msg_type=0x50 stock=4141504c20202020 ob_state=0 ob_ready=1 ob_fv=1
[DBG] t=13464359 watchlist_hit #5
[DBG] t=13464359 feat_ext_fv #5 bbo_bid=0 bbo_ask=26880000
[DBG] t=13487697 features_valid #5
[DBG] t=13694405 GV=11111111 lv0v=1111 scores=0x4c174105 0x4c174105 0x4c174105 0x4c174105 0x4c174105 0x4c174105 0x4c174105 0x4c174105
[DBG] t=13704407 best_valid #5 score=0x4c174105
[DBG] t=13724411 risk_pass #4
UVM_INFO tb_top.sv(130) @ 13751083: uvm_test_top.scb [SCB] OUCH pkt #4: msg_type=O correct
UVM_INFO tb_top.sv(741) @ 14064000: uvm_test_top [TEST] Sending Add sell AAPL (for delete test)
[DBG] t=14184503 fields_valid #10 msg_type=0x41 stock=4141504c20202020 ob_state=0 ob_ready=1 ob_fv=1
[DBG] t=14187837 OB_READ_REF1 op_msg_type=0x41 order_ref=1010 probe=0
[DBG] t=14194505 watchlist_hit #6
[DBG] t=14194505 feat_ext_fv #6 bbo_bid=0 bbo_ask=26880000
[DBG] t=14197839 OB_MATCH op_msg=0x41 is_add=1 ref_match=0 ref_empty=1 probe=0
[DBG] t=14211175 OB_UPDATE op_msg=0x41 target_found=1
[DBG] t=14217843 features_valid #6
[DBG] t=14424551 GV=11111111 lv0v=1111 scores=0x4c1b000e 0x4c1b000e 0x4c1b000e 0x4c1b000e 0x4c1b000e 0x4c1b000e 0x4c1b000e 0x4c1b000e
[DBG] t=14434553 best_valid #6 score=0x4c1b000e
[DBG] t=14454557 risk_pass #5
UVM_INFO tb_top.sv(130) @ 14481229: uvm_test_top.scb [SCB] OUCH pkt #5: msg_type=O correct
UVM_INFO tb_top.sv(750) @ 14793600: uvm_test_top [TEST] Sending Delete Order (sell-side)
[DBG] t=14901313 fields_valid #11 msg_type=0x44 stock=0000000000000000 ob_state=0 ob_ready=1 ob_fv=1
[DBG] t=14904647 OB_READ_REF1 op_msg_type=0x44 order_ref=1010 probe=0
[DBG] t=14914649 OB_MATCH op_msg=0x44 is_add=0 ref_match=1 ref_empty=0 probe=0
[DBG] t=14927985 OB_UPDATE op_msg=0x44 target_found=1
UVM_INFO tb_top.sv(758) @ 15510400: uvm_test_top [TEST] Sending Execute Order (sell-side)
[DBG] t=15631459 fields_valid #12 msg_type=0x45 stock=0000000000000000 ob_state=0 ob_ready=1 ob_fv=1
[DBG] t=15634793 OB_READ_REF1 op_msg_type=0x45 order_ref=2003 probe=0
[DBG] t=15644795 OB_MATCH op_msg=0x45 is_add=0 ref_match=1 ref_empty=0 probe=0
[DBG] t=15658131 OB_UPDATE op_msg=0x45 target_found=1
UVM_INFO tb_top.sv(766) @ 16240000: uvm_test_top [TEST] Sending Cancel to zero shares (full cancel)
[DBG] t=16354937 fields_valid #13 msg_type=0x58 stock=0000000000000000 ob_state=0 ob_ready=1 ob_fv=1
[DBG] t=16358271 OB_READ_REF1 op_msg_type=0x58 order_ref=1001 probe=0
[DBG] t=16368273 OB_MATCH op_msg=0x58 is_add=0 ref_match=1 ref_empty=0 probe=0
[DBG] t=16381609 OB_UPDATE op_msg=0x58 target_found=1
UVM_INFO tb_top.sv(774) @ 16963200: uvm_test_top [TEST] Sending fat-finger order (shares > MAX_QTY)
[DBG] t=17085083 fields_valid #14 msg_type=0x41 stock=4141504c20202020 ob_state=0 ob_ready=1 ob_fv=1
[DBG] t=17088417 OB_READ_REF1 op_msg_type=0x41 order_ref=5500 probe=0
[DBG] t=17095085 watchlist_hit #7
[DBG] t=17095085 feat_ext_fv #7 bbo_bid=0 bbo_ask=26880000
[DBG] t=17098419 OB_MATCH op_msg=0x41 is_add=1 ref_match=0 ref_empty=1 probe=0
[DBG] t=17111755 OB_UPDATE op_msg=0x41 target_found=1
[DBG] t=17118423 features_valid #7
UVM_INFO tb_top.sv(786) @ 17180800: uvm_test_top [TEST] Sending seq gap (skip 15, send 16)
[DBG] t=17325131 GV=11111111 lv0v=1111 scores=0x4c19836c 0x4c19836c 0x4c19836c 0x4c19836c 0x4c19836c 0x4c19836c 0x4c19836c 0x4c19836c
[DBG] t=17335133 best_valid #7 score=0x4c19836c
[DBG] t=17355137 risk_pass #6
UVM_INFO tb_top.sv(130) @ 17381809: uvm_test_top.scb [SCB] OUCH pkt #6: msg_type=O correct
UVM_INFO tb_top.sv(794) @ 17398400: uvm_test_top [TEST] Sending correct seq 15
[DBG] t=17518503 fields_valid #15 msg_type=0x41 stock=4141504c20202020 ob_state=0 ob_ready=1 ob_fv=1
[DBG] t=17521837 OB_READ_REF1 op_msg_type=0x41 order_ref=4002 probe=0
[DBG] t=17528505 watchlist_hit #8
[DBG] t=17528505 feat_ext_fv #8 bbo_bid=0 bbo_ask=26880000
[DBG] t=17531839 OB_MATCH op_msg=0x41 is_add=1 ref_match=0 ref_empty=1 probe=0
[DBG] t=17545175 OB_UPDATE op_msg=0x41 target_found=1
[DBG] t=17551843 features_valid #8
[DBG] t=17735213 fields_valid #16 msg_type=0x41 stock=4141504c20202020 ob_state=0 ob_ready=1 ob_fv=1
[DBG] t=17738547 OB_READ_REF1 op_msg_type=0x41 order_ref=5000 probe=0
[DBG] t=17745215 watchlist_hit #9
[DBG] t=17745215 feat_ext_fv #9 bbo_bid=0 bbo_ask=25600000
[DBG] t=17748549 OB_MATCH op_msg=0x41 is_add=1 ref_match=0 ref_empty=1 probe=0
[DBG] t=17758551 GV=11111111 lv0v=1111 scores=0x4c173ff8 0x4c173ff8 0x4c173ff8 0x4c173ff8 0x4c173ff8 0x4c173ff8 0x4c173ff8 0x4c173ff8
[DBG] t=17761885 OB_UPDATE op_msg=0x41 target_found=1
[DBG] t=17768553 features_valid #9
[DBG] t=17768553 best_valid #8 score=0x4c173ff8
[DBG] t=17788557 risk_pass #7
UVM_INFO tb_top.sv(130) @ 17815229: uvm_test_top.scb [SCB] OUCH pkt #7: msg_type=O correct
[DBG] t=17955257 fields_valid #17 msg_type=0x41 stock=4141504c20202020 ob_state=0 ob_ready=1 ob_fv=1
[DBG] t=17958591 OB_READ_REF1 op_msg_type=0x41 order_ref=5001 probe=0
[DBG] t=17965259 watchlist_hit #10
[DBG] t=17965259 feat_ext_fv #10 bbo_bid=0 bbo_ask=25600000
[DBG] t=17968593 OB_MATCH op_msg=0x41 is_add=1 ref_match=0 ref_empty=1 probe=0
[DBG] t=17975261 GV=11111111 lv0v=1111 scores=0x4c43000a 0x4c43000a 0x4c43000a 0x4c43000a 0x4c43000a 0x4c43000a 0x4c43000a 0x4c43000a
[DBG] t=17981929 OB_UPDATE op_msg=0x41 target_found=1
[DBG] t=17985263 best_valid #9 score=0x4c43000a
[DBG] t=17988597 features_valid #10
[DBG] t=18005267 risk_pass #8
UVM_INFO tb_top.sv(130) @ 18031939: uvm_test_top.scb [SCB] OUCH pkt #8: msg_type=O correct
[DBG] t=18171967 fields_valid #18 msg_type=0x41 stock=4141504c20202020 ob_state=0 ob_ready=1 ob_fv=1
[DBG] t=18175301 OB_READ_REF1 op_msg_type=0x41 order_ref=5002 probe=0
[DBG] t=18181969 watchlist_hit #11
[DBG] t=18181969 feat_ext_fv #11 bbo_bid=0 bbo_ask=25600000
[DBG] t=18185303 OB_MATCH op_msg=0x41 is_add=1 ref_match=0 ref_empty=1 probe=0
[DBG] t=18195305 GV=11111111 lv0v=1111 scores=0x4c72400e 0x4c72400e 0x4c72400e 0x4c72400e 0x4c72400e 0x4c72400e 0x4c72400e 0x4c72400e
[DBG] t=18198639 OB_UPDATE op_msg=0x41 target_found=1
[DBG] t=18205307 features_valid #11
[DBG] t=18205307 best_valid #10 score=0x4c72400e
[DBG] t=18225311 risk_pass #9
UVM_INFO tb_top.sv(130) @ 18251983: uvm_test_top.scb [SCB] OUCH pkt #9: msg_type=O correct
[DBG] t=18388677 fields_valid #19 msg_type=0x41 stock=4141504c20202020 ob_state=0 ob_ready=1 ob_fv=1
[DBG] t=18392011 OB_READ_REF1 op_msg_type=0x41 order_ref=5003 probe=0
[DBG] t=18398679 watchlist_hit #12
[DBG] t=18398679 feat_ext_fv #12 bbo_bid=0 bbo_ask=25600000
[DBG] t=18402013 OB_MATCH op_msg=0x41 is_add=1 ref_match=0 ref_empty=1 probe=0
[DBG] t=18412015 GV=11111111 lv0v=1111 scores=0x4c734010 0x4c734010 0x4c734010 0x4c734010 0x4c734010 0x4c734010 0x4c734010 0x4c734010
[DBG] t=18415349 OB_UPDATE op_msg=0x41 target_found=0
[DBG] t=18422017 features_valid #12
[DBG] t=18422017 best_valid #11 score=0x4c734010
[DBG] t=18442021 risk_pass #10
UVM_INFO tb_top.sv(130) @ 18468693: uvm_test_top.scb [SCB] OUCH pkt #10: msg_type=O correct
[DBG] t=18608721 fields_valid #20 msg_type=0x41 stock=4141504c20202020 ob_state=0 ob_ready=1 ob_fv=1
[DBG] t=18612055 OB_READ_REF1 op_msg_type=0x41 order_ref=5004 probe=0
[DBG] t=18618723 watchlist_hit #13
[DBG] t=18618723 feat_ext_fv #13 bbo_bid=0 bbo_ask=25600000
[DBG] t=18622057 OB_MATCH op_msg=0x41 is_add=1 ref_match=0 ref_empty=1 probe=0
[DBG] t=18628725 GV=11111111 lv0v=1111 scores=0x4c744016 0x4c744016 0x4c744016 0x4c744016 0x4c744016 0x4c744016 0x4c744016 0x4c744016
[DBG] t=18635393 OB_UPDATE op_msg=0x41 target_found=0
[DBG] t=18638727 best_valid #12 score=0x4c744016
[DBG] t=18642061 features_valid #13
[DBG] t=18658731 risk_pass #11
UVM_INFO tb_top.sv(130) @ 18685403: uvm_test_top.scb [SCB] OUCH pkt #11: msg_type=O correct
[DBG] t=18778755 fields_valid #21 msg_type=0x41 stock=4d53465420202020 ob_state=0 ob_ready=1 ob_fv=1
[DBG] t=18782089 OB_READ_REF1 op_msg_type=0x41 order_ref=6000 probe=0
[DBG] t=18788757 watchlist_hit #14
[DBG] t=18788757 feat_ext_fv #14 bbo_bid=0 bbo_ask=25600000
[DBG] t=18792091 OB_MATCH op_msg=0x41 is_add=1 ref_match=0 ref_empty=1 probe=0
[DBG] t=18805427 OB_UPDATE op_msg=0x41 target_found=0
[DBG] t=18812095 features_valid #14
[DBG] t=18848769 GV=11111111 lv0v=1111 scores=0x4c754018 0x4c754018 0x4c754018 0x4c754018 0x4c754018 0x4c754018 0x4c754018 0x4c754018
[DBG] t=18858771 best_valid #13 score=0x4c754018
[DBG] t=18878775 risk_pass #12
UVM_INFO tb_top.sv(130) @ 18905447: uvm_test_top.scb [SCB] OUCH pkt #12: msg_type=O correct
[DBG] t=18922117 fields_valid #22 msg_type=0x41 stock=4d53465420202020 ob_state=0 ob_ready=1 ob_fv=1
[DBG] t=18925451 OB_READ_REF1 op_msg_type=0x41 order_ref=6001 probe=0
[DBG] t=18932119 watchlist_hit #15
[DBG] t=18932119 feat_ext_fv #15 bbo_bid=0 bbo_ask=25600000
[DBG] t=18935453 OB_MATCH op_msg=0x41 is_add=1 ref_match=0 ref_empty=1 probe=0
[DBG] t=18948789 OB_UPDATE op_msg=0x41 target_found=1
[DBG] t=18955457 features_valid #15
[DBG] t=19062145 fields_valid #23 msg_type=0x41 stock=4d53465420202020 ob_state=0 ob_ready=1 ob_fv=1
[DBG] t=19065479 OB_READ_REF1 op_msg_type=0x41 order_ref=6002 probe=0
[DBG] t=19072147 watchlist_hit #16
[DBG] t=19072147 feat_ext_fv #16 bbo_bid=0 bbo_ask=25600000
[DBG] t=19075481 OB_MATCH op_msg=0x41 is_add=1 ref_match=0 ref_empty=1 probe=0
[DBG] t=19088817 OB_UPDATE op_msg=0x41 target_found=0
[DBG] t=19095485 features_valid #16
[DBG] t=19162165 GV=11111111 lv0v=1111 scores=0x4c74c012 0x4c74c012 0x4c74c012 0x4c74c012 0x4c74c012 0x4c74c012 0x4c74c012 0x4c74c012
[DBG] t=19172167 best_valid #14 score=0x4c74c012
[DBG] t=19192171 risk_pass #13
UVM_INFO tb_top.sv(130) @ 19218843: uvm_test_top.scb [SCB] OUCH pkt #13: msg_type=O correct
UVM_INFO tb_top.sv(848) @ 19670400: uvm_test_top [TEST] Sending additional AAPL orders (post-BBO)
[DBG] t=19982329 fields_valid #24 msg_type=0x41 stock=4141504c20202020 ob_state=0 ob_ready=1 ob_fv=1
[DBG] t=19985663 OB_READ_REF1 op_msg_type=0x41 order_ref=7000 probe=0
[DBG] t=19992331 watchlist_hit #17
[DBG] t=19992331 feat_ext_fv #17 bbo_bid=0 bbo_ask=25600000
[DBG] t=19995665 OB_MATCH op_msg=0x41 is_add=1 ref_match=0 ref_empty=1 probe=0
[DBG] t=20009001 OB_UPDATE op_msg=0x41 target_found=0
[DBG] t=20015669 features_valid #17
[DBG] t=20222377 GV=11111111 lv0v=1111 scores=0x4c71c033 0x4c71c033 0x4c71c033 0x4c71c033 0x4c71c033 0x4c71c033 0x4c71c033 0x4c71c033
[DBG] t=20232379 best_valid #15 score=0x4c71c033
[DBG] t=20252383 risk_pass #14
[DBG] t=20265719 fields_valid #25 msg_type=0x41 stock=4141504c20202020 ob_state=0 ob_ready=1 ob_fv=1
[DBG] t=20269053 OB_READ_REF1 op_msg_type=0x41 order_ref=7001 probe=0
[DBG] t=20275721 watchlist_hit #18
[DBG] t=20275721 feat_ext_fv #18 bbo_bid=0 bbo_ask=25600000
UVM_INFO tb_top.sv(130) @ 20279055: uvm_test_top.scb [SCB] OUCH pkt #14: msg_type=O correct
[DBG] t=20279055 OB_MATCH op_msg=0x41 is_add=1 ref_match=0 ref_empty=1 probe=0
[DBG] t=20292391 OB_UPDATE op_msg=0x41 target_found=0
[DBG] t=20299059 features_valid #18
[DBG] t=20505767 GV=11111111 lv0v=1111 scores=0x4c724016 0x4c724016 0x4c724016 0x4c724016 0x4c724016 0x4c724016 0x4c724016 0x4c724016
[DBG] t=20515769 best_valid #16 score=0x4c724016
[DBG] t=20535773 risk_pass #15
[DBG] t=20545775 fields_valid #26 msg_type=0x41 stock=4141504c20202020 ob_state=0 ob_ready=1 ob_fv=1
[DBG] t=20549109 OB_READ_REF1 op_msg_type=0x41 order_ref=7002 probe=0
[DBG] t=20555777 watchlist_hit #19
[DBG] t=20555777 feat_ext_fv #19 bbo_bid=0 bbo_ask=24832000
[DBG] t=20559111 OB_MATCH op_msg=0x41 is_add=1 ref_match=0 ref_empty=1 probe=0
UVM_INFO tb_top.sv(130) @ 20562445: uvm_test_top.scb [SCB] OUCH pkt #15: msg_type=O correct
[DBG] t=20572447 OB_UPDATE op_msg=0x41 target_found=0
[DBG] t=20579115 features_valid #19
[DBG] t=20785823 GV=11111111 lv0v=1111 scores=0x4c714019 0x4c714019 0x4c714019 0x4c714019 0x4c714019 0x4c714019 0x4c714019 0x4c714019
[DBG] t=20795825 best_valid #17 score=0x4c714019
[DBG] t=20815829 risk_pass #16
[DBG] t=20829165 fields_valid #27 msg_type=0x41 stock=4141504c20202020 ob_state=0 ob_ready=1 ob_fv=1
[DBG] t=20832499 OB_READ_REF1 op_msg_type=0x41 order_ref=7003 probe=0
[DBG] t=20839167 watchlist_hit #20
[DBG] t=20839167 feat_ext_fv #20 bbo_bid=0 bbo_ask=24832000
UVM_INFO tb_top.sv(130) @ 20842501: uvm_test_top.scb [SCB] OUCH pkt #16: msg_type=O correct
[DBG] t=20842501 OB_MATCH op_msg=0x41 is_add=1 ref_match=0 ref_empty=1 probe=0
[DBG] t=20855837 OB_UPDATE op_msg=0x41 target_found=0
[DBG] t=20862505 features_valid #20
[DBG] t=21069213 GV=11111111 lv0v=1111 scores=0x4c71c012 0x4c71c012 0x4c71c012 0x4c71c012 0x4c71c012 0x4c71c012 0x4c71c012 0x4c71c012
[DBG] t=21079215 best_valid #18 score=0x4c71c012
[DBG] t=21099219 risk_pass #17
[DBG] t=21109221 fields_valid #28 msg_type=0x41 stock=4141504c20202020 ob_state=0 ob_ready=1 ob_fv=1
[DBG] t=21112555 OB_READ_REF1 op_msg_type=0x41 order_ref=7004 probe=0
[DBG] t=21119223 watchlist_hit #21
[DBG] t=21119223 feat_ext_fv #21 bbo_bid=0 bbo_ask=24832000
[DBG] t=21122557 OB_MATCH op_msg=0x41 is_add=1 ref_match=0 ref_empty=1 probe=0
UVM_INFO tb_top.sv(130) @ 21125891: uvm_test_top.scb [SCB] OUCH pkt #17: msg_type=O correct
[DBG] t=21135893 OB_UPDATE op_msg=0x41 target_found=0
[DBG] t=21142561 features_valid #21
[DBG] t=21349269 GV=11111111 lv0v=1111 scores=0x4c72401e 0x4c72401e 0x4c72401e 0x4c72401e 0x4c72401e 0x4c72401e 0x4c72401e 0x4c72401e
[DBG] t=21359271 best_valid #19 score=0x4c72401e
[DBG] t=21379275 risk_pass #18
[DBG] t=21392611 fields_valid #29 msg_type=0x41 stock=4141504c20202020 ob_state=0 ob_ready=1 ob_fv=1
[DBG] t=21395945 OB_READ_REF1 op_msg_type=0x41 order_ref=7005 probe=0
[DBG] t=21402613 watchlist_hit #22
[DBG] t=21402613 feat_ext_fv #22 bbo_bid=0 bbo_ask=24832000
UVM_INFO tb_top.sv(130) @ 21405947: uvm_test_top.scb [SCB] OUCH pkt #18: msg_type=O correct
[DBG] t=21405947 OB_MATCH op_msg=0x41 is_add=1 ref_match=0 ref_empty=1 probe=0
[DBG] t=21419283 OB_UPDATE op_msg=0x41 target_found=0
[DBG] t=21425951 features_valid #22
[DBG] t=21632659 GV=11111111 lv0v=1111 scores=0x4c72c014 0x4c72c014 0x4c72c014 0x4c72c014 0x4c72c014 0x4c72c014 0x4c72c014 0x4c72c014
[DBG] t=21642661 best_valid #20 score=0x4c72c014
[DBG] t=21662665 risk_pass #19
[DBG] t=21672667 fields_valid #30 msg_type=0x41 stock=4141504c20202020 ob_state=0 ob_ready=1 ob_fv=1
[DBG] t=21676001 OB_READ_REF1 op_msg_type=0x41 order_ref=7006 probe=0
[DBG] t=21682669 watchlist_hit #23
[DBG] t=21682669 feat_ext_fv #23 bbo_bid=0 bbo_ask=24832000
[DBG] t=21686003 OB_MATCH op_msg=0x41 is_add=1 ref_match=0 ref_empty=1 probe=0
UVM_INFO tb_top.sv(130) @ 21689337: uvm_test_top.scb [SCB] OUCH pkt #19: msg_type=O correct
[DBG] t=21699339 OB_UPDATE op_msg=0x41 target_found=0
[DBG] t=21706007 features_valid #23
[DBG] t=21912715 GV=11111111 lv0v=1111 scores=0x4c734023 0x4c734023 0x4c734023 0x4c734023 0x4c734023 0x4c734023 0x4c734023 0x4c734023
[DBG] t=21922717 best_valid #21 score=0x4c734023
[DBG] t=21942721 risk_pass #20
[DBG] t=21952723 fields_valid #31 msg_type=0x41 stock=4141504c20202020 ob_state=0 ob_ready=1 ob_fv=1
[DBG] t=21956057 OB_READ_REF1 op_msg_type=0x41 order_ref=7007 probe=0
[DBG] t=21962725 watchlist_hit #24
[DBG] t=21962725 feat_ext_fv #24 bbo_bid=0 bbo_ask=24832000
[DBG] t=21966059 OB_MATCH op_msg=0x41 is_add=1 ref_match=0 ref_empty=1 probe=0
UVM_INFO tb_top.sv(130) @ 21969393: uvm_test_top.scb [SCB] OUCH pkt #20: msg_type=O correct
[DBG] t=21979395 OB_UPDATE op_msg=0x41 target_found=0
[DBG] t=21986063 features_valid #24
[DBG] t=22192771 GV=11111111 lv0v=1111 scores=0x4c73c017 0x4c73c017 0x4c73c017 0x4c73c017 0x4c73c017 0x4c73c017 0x4c73c017 0x4c73c017
[DBG] t=22202773 best_valid #22 score=0x4c73c017
[DBG] t=22222777 risk_pass #21
[DBG] t=22236113 fields_valid #32 msg_type=0x41 stock=4141504c20202020 ob_state=0 ob_ready=1 ob_fv=1
[DBG] t=22239447 OB_READ_REF1 op_msg_type=0x41 order_ref=7008 probe=0
[DBG] t=22246115 watchlist_hit #25
[DBG] t=22246115 feat_ext_fv #25 bbo_bid=0 bbo_ask=24832000
UVM_INFO tb_top.sv(130) @ 22249449: uvm_test_top.scb [SCB] OUCH pkt #21: msg_type=O correct
[DBG] t=22249449 OB_MATCH op_msg=0x41 is_add=1 ref_match=0 ref_empty=1 probe=0
[DBG] t=22262785 OB_UPDATE op_msg=0x41 target_found=0
[DBG] t=22269453 features_valid #25
[DBG] t=22476161 GV=11111111 lv0v=1111 scores=0x4c744028 0x4c744028 0x4c744028 0x4c744028 0x4c744028 0x4c744028 0x4c744028 0x4c744028
[DBG] t=22486163 best_valid #23 score=0x4c744028
UVM_INFO tb_top.sv(861) @ 22486400: uvm_test_top [TEST] Sending additional MSFT orders (post-BBO)
[DBG] t=22506167 risk_pass #22
[DBG] t=22516169 fields_valid #33 msg_type=0x41 stock=4141504c20202020 ob_state=0 ob_ready=1 ob_fv=1
[DBG] t=22519503 OB_READ_REF1 op_msg_type=0x41 order_ref=7009 probe=0
[DBG] t=22526171 watchlist_hit #26
[DBG] t=22526171 feat_ext_fv #26 bbo_bid=0 bbo_ask=24832000
[DBG] t=22529505 OB_MATCH op_msg=0x41 is_add=1 ref_match=0 ref_empty=1 probe=0
UVM_INFO tb_top.sv(130) @ 22532839: uvm_test_top.scb [SCB] OUCH pkt #22: msg_type=O correct
[DBG] t=22542841 OB_UPDATE op_msg=0x41 target_found=0
[DBG] t=22549509 features_valid #26
[DBG] t=22756217 GV=11111111 lv0v=1111 scores=0x4c74c019 0x4c74c019 0x4c74c019 0x4c74c019 0x4c74c019 0x4c74c019 0x4c74c019 0x4c74c019
[DBG] t=22766219 best_valid #24 score=0x4c74c019
[DBG] t=22786223 risk_pass #23
[DBG] t=22799559 fields_valid #34 msg_type=0x41 stock=4d53465420202020 ob_state=0 ob_ready=1 ob_fv=1
